1568379183
s:262:"O:34:"XLite\Core\View\DTO\RenderedWidget":3:{s:7:"content";s:153:"
<img src="//xcarttest.com/skins/crisp_white/customer/images/logo.png" alt="Home"  data-max-width="221" data-max-height="40" data-is-default-image="" />
";s:6:"assets";a:0:{}s:8:"metaTags";a:0:{}}";